{
    "ErrorOccurred": false,
    "ErrorMessage": null,
    "Status": null,
    "DebugInfo": null,
    "Data": [
        {
            "FileNumber": "2004520",
            "FullName": "HOWDY D BABY",
            "LastActivityDate": "07/01/2016",
            "LastFicheDate": "",
            "PriorFicheDate": "",
            "PayeeCode": "00",
            "PaymentAddress": [
                {
                    "AddressID": "001",
                    "Type": "",
                    "AccountNumber": "",
                    "AddressLine1": "ROGUS BANK",
                    "AddressLine2": "20 ROGUS LN",
                    "AddressLine3": "BALTIMORE MD 21202",
                    "AddressLine4": null,
                    "AddressLine5": null,
                    "AddressLine6": null,
                    "PayMethod": "Mailed Check",
                    "RO": "01",
                    "RoutingNum": "",
                    "ZipCode": "21202"
                },
                {
                    "AddressID": "002",
                    "Type": "",
                    "AccountNumber": "",
                    "AddressLine1": "ROGUS BANK",
                    "AddressLine2": "20 ROGUS LANE",
                    "AddressLine3": "BALTIMORE",
                    "AddressLine4": null,
                    "AddressLine5": null,
                    "AddressLine6": null,
                    "PayMethod": "Mailed Check",
                    "RO": "01",
                    "RoutingNum": "",
                    "ZipCode": "21202"
                },
                {
                    "AddressID": "003",
                    "Type": "",
                    "AccountNumber": "",
                    "AddressLine1": "ROGUS BANK",
                    "AddressLine2": "20 ROGUS LANE",
                    "AddressLine3": "BALTIMORE",
                    "AddressLine4": null,
                    "AddressLine5": null,
                    "AddressLine6": null,
                    "PayMethod": "Mailed Check",
                    "RO": "01",
                    "RoutingNum": "",
                    "ZipCode": "21202"
                },
                {
                    "AddressID": "004",
                    "Type": "",
                    "AccountNumber": "",
                    "AddressLine1": "ROGUS BANK",
                    "AddressLine2": "20 ROGUS LANE",
                    "AddressLine3": "BALTIMORE MD 21202",
                    "AddressLine4": null,
                    "AddressLine5": null,
                    "AddressLine6": null,
                    "PayMethod": "Mailed Check",
                    "RO": "01",
                    "RoutingNum": "",
                    "ZipCode": "21202"
                },
                {
                    "AddressID": "005",
                    "Type": "",
                    "AccountNumber": "",
                    "AddressLine1": "ROGUS BANK",
                    "AddressLine2": "20 ROGUS LANE",
                    "AddressLine3": "BALTIMORE MD 21202",
                    "AddressLine4": null,
                    "AddressLine5": null,
                    "AddressLine6": null,
                    "PayMethod": "Mailed Check",
                    "RO": "01",
                    "RoutingNum": "",
                    "ZipCode": "21202"
                },
                {
                    "AddressID": "006",
                    "Type": "",
                    "AccountNumber": "",
                    "AddressLine1": "ROGUS BANK",
                    "AddressLine2": "20 ROGUS LANE",
                    "AddressLine3": "BALTIMORE MD 21202",
                    "AddressLine4": null,
                    "AddressLine5": null,
                    "AddressLine6": null,
                    "PayMethod": "Mailed Check",
                    "RO": "01",
                    "RoutingNum": "",
                    "ZipCode": "21202"
                },
                {
                    "AddressID": "007",
                    "Type": "",
                    "AccountNumber": "",
                    "AddressLine1": "ROGUS BANK",
                    "AddressLine2": "20 ROGUS LANE",
                    "AddressLine3": "BALTIMORE MD 21202",
                    "AddressLine4": null,
                    "AddressLine5": null,
                    "AddressLine6": null,
                    "PayMethod": "Mailed Check",
                    "RO": "01",
                    "RoutingNum": "",
                    "ZipCode": "21202"
                },
                {
                    "AddressID": "008",
                    "Type": "",
                    "AccountNumber": "",
                    "AddressLine1": "ROGUS BANK",
                    "AddressLine2": "20 ROGUS LANE",
                    "AddressLine3": "BALTIMORE MD 21202",
                    "AddressLine4": null,
                    "AddressLine5": null,
                    "AddressLine6": null,
                    "PayMethod": "Mailed Check",
                    "RO": "01",
                    "RoutingNum": "",
                    "ZipCode": "21202"
                },
                {
                    "AddressID": "009",
                    "Type": "",
                    "AccountNumber": "",
                    "AddressLine1": "ROGUS BANK",
                    "AddressLine2": "20 ROGUS LANE",
                    "AddressLine3": "BALTIMORE MD 21202",
                    "AddressLine4": null,
                    "AddressLine5": null,
                    "AddressLine6": null,
                    "PayMethod": "Mailed Check",
                    "RO": "01",
                    "RoutingNum": "",
                    "ZipCode": "21202"
                },
                {
                    "AddressID": "010",
                    "Type": "",
                    "AccountNumber": "",
                    "AddressLine1": "ROGUS BANK",
                    "AddressLine2": "20 ROGUS LANE",
                    "AddressLine3": "BALTIMORE MD 21202",
                    "AddressLine4": null,
                    "AddressLine5": null,
                    "AddressLine6": null,
                    "PayMethod": "Mailed Check",
                    "RO": "01",
                    "RoutingNum": "",
                    "ZipCode": "21202"
                },
                {
                    "AddressID": "011",
                    "Type": "",
                    "AccountNumber": "",
                    "AddressLine1": "ROGUS BANK",
                    "AddressLine2": "20 ROGUS LANE",
                    "AddressLine3": "BALTIMORE MD 21202",
                    "AddressLine4": null,
                    "AddressLine5": null,
                    "AddressLine6": null,
                    "PayMethod": "Mailed Check",
                    "RO": "01",
                    "RoutingNum": "",
                    "ZipCode": "21202"
                },
                {
                    "AddressID": "012",
                    "Type": "",
                    "AccountNumber": "",
                    "AddressLine1": "ROGUS BANK",
                    "AddressLine2": "20 ROGUS LANE",
                    "AddressLine3": "BALTIMORE MD 21202",
                    "AddressLine4": null,
                    "AddressLine5": null,
                    "AddressLine6": null,
                    "PayMethod": "Mailed Check",
                    "RO": "01",
                    "RoutingNum": "",
                    "ZipCode": "21202"
                },
                {
                    "AddressID": "013",
                    "Type": "",
                    "AccountNumber": "",
                    "AddressLine1": "ROGUS BANK",
                    "AddressLine2": "20 ROGUS LANE",
                    "AddressLine3": "BALTIMORE MD 21202",
                    "AddressLine4": null,
                    "AddressLine5": null,
                    "AddressLine6": null,
                    "PayMethod": "Mailed Check",
                    "RO": "01",
                    "RoutingNum": "",
                    "ZipCode": "21202"
                },
                {
                    "AddressID": "014",
                    "Type": "",
                    "AccountNumber": "",
                    "AddressLine1": "ROGUS BANK",
                    "AddressLine2": "20 ROGUS LANE",
                    "AddressLine3": "BALTIMORE MD 21202",
                    "AddressLine4": null,
                    "AddressLine5": null,
                    "AddressLine6": null,
                    "PayMethod": "Mailed Check",
                    "RO": "01",
                    "RoutingNum": "",
                    "ZipCode": "21202"
                },
                {
                    "AddressID": "015",
                    "Type": "",
                    "AccountNumber": "",
                    "AddressLine1": "ROGUS BANK",
                    "AddressLine2": "20 ROGUS LANE",
                    "AddressLine3": "BALTIMORE MD 21202",
                    "AddressLine4": null,
                    "AddressLine5": null,
                    "AddressLine6": null,
                    "PayMethod": "Mailed Check",
                    "RO": "01",
                    "RoutingNum": "",
                    "ZipCode": "21202"
                },
                {
                    "AddressID": "016",
                    "Type": "",
                    "AccountNumber": "",
                    "AddressLine1": "ROGUS BANK",
                    "AddressLine2": "20 ROGUS LANE",
                    "AddressLine3": "BALTIMORE MD 21202",
                    "AddressLine4": null,
                    "AddressLine5": null,
                    "AddressLine6": null,
                    "PayMethod": "Mailed Check",
                    "RO": "01",
                    "RoutingNum": "",
                    "ZipCode": "21202"
                },
                {
                    "AddressID": "017",
                    "Type": "",
                    "AccountNumber": "",
                    "AddressLine1": "ROGUS BANK",
                    "AddressLine2": "20 ROGUS LANE",
                    "AddressLine3": "BALTIMORE MD 21202",
                    "AddressLine4": null,
                    "AddressLine5": null,
                    "AddressLine6": null,
                    "PayMethod": "Mailed Check",
                    "RO": "01",
                    "RoutingNum": "",
                    "ZipCode": "21202"
                },
                {
                    "AddressID": "018",
                    "Type": "",
                    "AccountNumber": "",
                    "AddressLine1": "ROGUS BANK",
                    "AddressLine2": "20 ROGUS LANE",
                    "AddressLine3": "BALTIMORE MD 21202",
                    "AddressLine4": null,
                    "AddressLine5": null,
                    "AddressLine6": null,
                    "PayMethod": "Mailed Check",
                    "RO": "01",
                    "RoutingNum": "",
                    "ZipCode": "21202"
                },
                {
                    "AddressID": "019",
                    "Type": "",
                    "AccountNumber": "",
                    "AddressLine1": "ROGUS BANK",
                    "AddressLine2": "20 ROGUS LANE",
                    "AddressLine3": "BALTIMORE MD 21202",
                    "AddressLine4": null,
                    "AddressLine5": null,
                    "AddressLine6": null,
                    "PayMethod": "Mailed Check",
                    "RO": "01",
                    "RoutingNum": "",
                    "ZipCode": "21202"
                },
                {
                    "AddressID": "020",
                    "Type": "",
                    "AccountNumber": "",
                    "AddressLine1": "ROGUS BANK",
                    "AddressLine2": "20 ROGUS LANE",
                    "AddressLine3": "BALTIMORE MD 21202",
                    "AddressLine4": null,
                    "AddressLine5": null,
                    "AddressLine6": null,
                    "PayMethod": "Mailed Check",
                    "RO": "01",
                    "RoutingNum": "",
                    "ZipCode": "21202"
                },
                {
                    "AddressID": "021",
                    "Type": "",
                    "AccountNumber": "",
                    "AddressLine1": "ROGUS BANK",
                    "AddressLine2": "20 ROGUS LANE",
                    "AddressLine3": "BALTIMORE MD 21202",
                    "AddressLine4": null,
                    "AddressLine5": null,
                    "AddressLine6": null,
                    "PayMethod": "Mailed Check",
                    "RO": "01",
                    "RoutingNum": "",
                    "ZipCode": "21202"
                },
                {
                    "AddressID": "022",
                    "Type": "",
                    "AccountNumber": "",
                    "AddressLine1": "ROGUS BANK",
                    "AddressLine2": "20 ROGUS LANE",
                    "AddressLine3": "BALTIMORE MD 21202",
                    "AddressLine4": null,
                    "AddressLine5": null,
                    "AddressLine6": null,
                    "PayMethod": "Mailed Check",
                    "RO": "01",
                    "RoutingNum": "",
                    "ZipCode": "21202"
                },
                {
                    "AddressID": "023",
                    "Type": "",
                    "AccountNumber": "",
                    "AddressLine1": "ROGUS BANK",
                    "AddressLine2": "20 ROGUS LANE",
                    "AddressLine3": "BALTIMORE MD 21202",
                    "AddressLine4": null,
                    "AddressLine5": null,
                    "AddressLine6": null,
                    "PayMethod": "Mailed Check",
                    "RO": "01",
                    "RoutingNum": "",
                    "ZipCode": "21202"
                },
                {
                    "AddressID": "024",
                    "Type": "",
                    "AccountNumber": "",
                    "AddressLine1": "ROGUS BANK",
                    "AddressLine2": "20 ROGUS LANE",
                    "AddressLine3": "BALTIMORE MD 21202",
                    "AddressLine4": null,
                    "AddressLine5": null,
                    "AddressLine6": null,
                    "PayMethod": "Mailed Check",
                    "RO": "01",
                    "RoutingNum": "",
                    "ZipCode": "21202"
                },
                {
                    "AddressID": "025",
                    "Type": "",
                    "AccountNumber": "",
                    "AddressLine1": "ROGUS BANK",
                    "AddressLine2": "20 ROGUS LANE",
                    "AddressLine3": "BALTIMORE MD 21202",
                    "AddressLine4": null,
                    "AddressLine5": null,
                    "AddressLine6": null,
                    "PayMethod": "Mailed Check",
                    "RO": "01",
                    "RoutingNum": "",
                    "ZipCode": "21202"
                },
                {
                    "AddressID": "026",
                    "Type": "",
                    "AccountNumber": "",
                    "AddressLine1": "ROGUS BANK",
                    "AddressLine2": "20 ROGUS LANE",
                    "AddressLine3": "BALTIMORE MD 21202",
                    "AddressLine4": null,
                    "AddressLine5": null,
                    "AddressLine6": null,
                    "PayMethod": "Mailed Check",
                    "RO": "01",
                    "RoutingNum": "",
                    "ZipCode": "21202"
                },
                {
                    "AddressID": "027",
                    "Type": "",
                    "AccountNumber": "",
                    "AddressLine1": "ROGUS BANK",
                    "AddressLine2": "20 ROGUS LANE",
                    "AddressLine3": "BALTIMORE MD 21202",
                    "AddressLine4": null,
                    "AddressLine5": null,
                    "AddressLine6": null,
                    "PayMethod": "Mailed Check",
                    "RO": "01",
                    "RoutingNum": "",
                    "ZipCode": "21202"
                }
            ],
            "Payments": [
                {
                    "Type": "Compensation & Pension - Recurring",
                    "CheckID": "001",
                    "CheckDate": "07/01/2016",
                    "CheckDateDate": "2016-07-01T00:00:00",
                    "Amount": "$2,393.00",
                    "ReturnFiche": "C"
                },
                {
                    "Type": "Compensation & Pension - Recurring",
                    "CheckID": "002",
                    "CheckDate": "06/01/2016",
                    "CheckDateDate": "2016-06-01T00:00:00",
                    "Amount": "$2,393.00",
                    "ReturnFiche": "C"
                },
                {
                    "Type": "Compensation & Pension - Recurring",
                    "CheckID": "003",
                    "CheckDate": "04/29/2016",
                    "CheckDateDate": "2016-04-29T00:00:00",
                    "Amount": "$2,393.00",
                    "ReturnFiche": "C"
                },
                {
                    "Type": "Compensation & Pension - Recurring",
                    "CheckID": "004",
                    "CheckDate": "04/01/2016",
                    "CheckDateDate": "2016-04-01T00:00:00",
                    "Amount": "$2,393.00",
                    "ReturnFiche": "C"
                },
                {
                    "Type": "Compensation & Pension - Recurring",
                    "CheckID": "005",
                    "CheckDate": "03/01/2016",
                    "CheckDateDate": "2016-03-01T00:00:00",
                    "Amount": "$2,393.00",
                    "ReturnFiche": "C"
                },
                {
                    "Type": "Compensation & Pension - Recurring",
                    "CheckID": "006",
                    "CheckDate": "02/01/2016",
                    "CheckDateDate": "2016-02-01T00:00:00",
                    "Amount": "$2,393.00",
                    "ReturnFiche": "C"
                },
                {
                    "Type": "Compensation & Pension - Recurring",
                    "CheckID": "007",
                    "CheckDate": "12/31/2015",
                    "CheckDateDate": "2015-12-31T00:00:00",
                    "Amount": "$2,393.00",
                    "ReturnFiche": "C"
                },
                {
                    "Type": "Compensation & Pension - Recurring",
                    "CheckID": "008",
                    "CheckDate": "12/01/2015",
                    "CheckDateDate": "2015-12-01T00:00:00",
                    "Amount": "$2,393.00",
                    "ReturnFiche": "C"
                },
                {
                    "Type": "Compensation & Pension - Recurring",
                    "CheckID": "009",
                    "CheckDate": "10/30/2015",
                    "CheckDateDate": "2015-10-30T00:00:00",
                    "Amount": "$2,393.00",
                    "ReturnFiche": "C"
                },
                {
                    "Type": "Compensation & Pension - Recurring",
                    "CheckID": "010",
                    "CheckDate": "10/01/2015",
                    "CheckDateDate": "2015-10-01T00:00:00",
                    "Amount": "$2,393.00",
                    "ReturnFiche": "C"
                },
                {
                    "Type": "Compensation & Pension - Recurring",
                    "CheckID": "011",
                    "CheckDate": "09/01/2015",
                    "CheckDateDate": "2015-09-01T00:00:00",
                    "Amount": "$2,393.00",
                    "ReturnFiche": "C"
                },
                {
                    "Type": "Compensation & Pension - Recurring",
                    "CheckID": "012",
                    "CheckDate": "07/31/2015",
                    "CheckDateDate": "2015-07-31T00:00:00",
                    "Amount": "$2,393.00",
                    "ReturnFiche": "C"
                },
                {
                    "Type": "Compensation & Pension - Recurring",
                    "CheckID": "013",
                    "CheckDate": "07/01/2015",
                    "CheckDateDate": "2015-07-01T00:00:00",
                    "Amount": "$2,393.00",
                    "ReturnFiche": "C"
                },
                {
                    "Type": "Compensation & Pension - Recurring",
                    "CheckID": "014",
                    "CheckDate": "06/01/2015",
                    "CheckDateDate": "2015-06-01T00:00:00",
                    "Amount": "$2,393.00",
                    "ReturnFiche": "C"
                },
                {
                    "Type": "Compensation & Pension - Recurring",
                    "CheckID": "015",
                    "CheckDate": "05/01/2015",
                    "CheckDateDate": "2015-05-01T00:00:00",
                    "Amount": "$2,393.00",
                    "ReturnFiche": "C"
                },
                {
                    "Type": "Compensation & Pension - Recurring",
                    "CheckID": "016",
                    "CheckDate": "04/01/2015",
                    "CheckDateDate": "2015-04-01T00:00:00",
                    "Amount": "$2,393.00",
                    "ReturnFiche": "C"
                },
                {
                    "Type": "Compensation & Pension - Recurring",
                    "CheckID": "017",
                    "CheckDate": "02/27/2015",
                    "CheckDateDate": "2015-02-27T00:00:00",
                    "Amount": "$2,393.00",
                    "ReturnFiche": "C"
                },
                {
                    "Type": "Compensation & Pension - Recurring",
                    "CheckID": "018",
                    "CheckDate": "01/30/2015",
                    "CheckDateDate": "2015-01-30T00:00:00",
                    "Amount": "$2,393.00",
                    "ReturnFiche": "C"
                },
                {
                    "Type": "Compensation & Pension - Recurring",
                    "CheckID": "019",
                    "CheckDate": "12/31/2014",
                    "CheckDateDate": "2014-12-31T00:00:00",
                    "Amount": "$2,393.00",
                    "ReturnFiche": "C"
                },
                {
                    "Type": "Compensation & Pension - Recurring",
                    "CheckID": "020",
                    "CheckDate": "12/01/2014",
                    "CheckDateDate": "2014-12-01T00:00:00",
                    "Amount": "$2,393.00",
                    "ReturnFiche": "C"
                },
                {
                    "Type": "Compensation & Pension - Recurring",
                    "CheckID": "021",
                    "CheckDate": "10/31/2014",
                    "CheckDateDate": "2014-10-31T00:00:00",
                    "Amount": "$2,393.00",
                    "ReturnFiche": "C"
                },
                {
                    "Type": "Compensation & Pension - Recurring",
                    "CheckID": "022",
                    "CheckDate": "10/01/2014",
                    "CheckDateDate": "2014-10-01T00:00:00",
                    "Amount": "$2,393.00",
                    "ReturnFiche": "C"
                },
                {
                    "Type": "Compensation & Pension - Recurring",
                    "CheckID": "023",
                    "CheckDate": "08/29/2014",
                    "CheckDateDate": "2014-08-29T00:00:00",
                    "Amount": "$2,393.00",
                    "ReturnFiche": "C"
                },
                {
                    "Type": "Compensation & Pension - Recurring",
                    "CheckID": "024",
                    "CheckDate": "08/01/2014",
                    "CheckDateDate": "2014-08-01T00:00:00",
                    "Amount": "$2,393.00",
                    "ReturnFiche": "C"
                },
                {
                    "Type": "Compensation & Pension - Recurring",
                    "CheckID": "025",
                    "CheckDate": "07/01/2014",
                    "CheckDateDate": "2014-07-01T00:00:00",
                    "Amount": "$2,393.00",
                    "ReturnFiche": "C"
                },
                {
                    "Type": "Compensation & Pension - Recurring",
                    "CheckID": "026",
                    "CheckDate": "05/30/2014",
                    "CheckDateDate": "2014-05-30T00:00:00",
                    "Amount": "$2,393.00",
                    "ReturnFiche": "C"
                },
                {
                    "Type": "Compensation & Pension - Recurring",
                    "CheckID": "027",
                    "CheckDate": "05/01/2014",
                    "CheckDateDate": "2014-05-01T00:00:00",
                    "Amount": "$2,393.00",
                    "ReturnFiche": "C"
                }
            ],
            "ReturnPayments": []
        }
    ]
}