{
  "ErrorOccurred": false,
  "testObjs": 
  [
    {
      "Atxt" : "Onion",
      "Bnum" : 28,
      "Cdate" : "11/21/17"
    },
    {
      "Atxt" : "Tomato",
      "Bnum" : 64,
      "Cdate" : "12/11/22"
    }
  ]
}
